^D:\BSUIR\5SEM\OSISP\MOVINGSPRITE\MOVINGSPRITE\DEBUG\SOURCE.OBJ
/OUT:"D:\BSUIR\5SEM\OSISP\MOVINGSPRITE\DEBUG\MOVINGSPRITE.EXE" /INCREMENTAL /NOLOGO KERNEL32.LIB USER32.LIB GDI32.LIB WINSPOOL.LIB COMDLG32.LIB ADVAPI32.LIB SHELL32.LIB OLE32.LIB OLEAUT32.LIB UUID.LIB ODBC32.LIB ODBCCP32.LIB /MANIFEST /MANIFESTUAC:"level='asInvoker' uiAccess='false'" /manifest:embed /DEBUG:FASTLINK /PDB:"D:\BSUIR\5SEM\OSISP\MOVINGSPRITE\DEBUG\MOVINGSPRITE.PDB" /SUBSYSTEM:WINDOWS /TLBID:1 /DYNAMICBASE /NXCOMPAT /IMPLIB:"D:\BSUIR\5SEM\OSISP\MOVINGSPRITE\DEBUG\MOVINGSPRITE.LIB" /MACHINE:X86 DEBUG\SOURCE.OBJ
^D:\BSUIR\5SEM\OSISP\MOVINGSPRITE\MOVINGSPRITE\DEBUG\APPLICATION.OBJ|D:\BSUIR\5SEM\OSISP\MOVINGSPRITE\MOVINGSPRITE\DEBUG\MAINWINDOW.OBJ|D:\BSUIR\5SEM\OSISP\MOVINGSPRITE\MOVINGSPRITE\DEBUG\SOURCE.OBJ|D:\BSUIR\5SEM\OSISP\MOVINGSPRITE\MOVINGSPRITE\DEBUG\SPRITE.OBJ
/OUT:"D:\BSUIR\5SEM\OSISP\MOVINGSPRITE\DEBUG\MOVINGSPRITE.EXE" /INCREMENTAL /NOLOGO KERNEL32.LIB USER32.LIB GDI32.LIB WINSPOOL.LIB COMDLG32.LIB ADVAPI32.LIB SHELL32.LIB OLE32.LIB OLEAUT32.LIB UUID.LIB ODBC32.LIB ODBCCP32.LIB /MANIFEST /MANIFESTUAC:"level='asInvoker' uiAccess='false'" /manifest:embed /DEBUG:FASTLINK /PDB:"D:\BSUIR\5SEM\OSISP\MOVINGSPRITE\DEBUG\MOVINGSPRITE.PDB" /SUBSYSTEM:WINDOWS /TLBID:1 /DYNAMICBASE /NXCOMPAT /IMPLIB:"D:\BSUIR\5SEM\OSISP\MOVINGSPRITE\DEBUG\MOVINGSPRITE.LIB" /MACHINE:X86 DEBUG\APPLICATION.OBJ
DEBUG\MAINWINDOW.OBJ
DEBUG\SOURCE.OBJ
DEBUG\SPRITE.OBJ
